{
    "name": "EchoWebsocket",
    "rootNamespace": "",
    "references": [
        "GUID:04376767bc1f3b428aefa3d20743e819"
    ],
    "includePlatforms": [],
    "excludePlatforms": [],
    "allowUnsafeCode": false,
    "overrideReferences": true,
    "precompiledReferences": [
        "Newtonsoft.Json.dll"
    ],
    "autoReferenced": true,
    "defineConstraints": [],
    "versionDefines": [],
    "noEngineReferences": false
}